..........................
----------------------------------------------------------------------
Ran 26 tests in 0.008s

OK
Name             Stmts   Miss Branch BrPart  Cover   Missing
------------------------------------------------------------
Collatz.py          46      0     14      0   100%
TestCollatz.py     107      0      0      0   100%
------------------------------------------------------------
TOTAL              153      0     14      0   100%
