..................
----------------------------------------------------------------------
Ran 18 tests in 0.030s

OK
Name             Stmts   Miss Branch BrPart  Cover   Missing
------------------------------------------------------------
Collatz.py          34      0     14      0   100%
TestCollatz.py      78      0      0      0   100%
------------------------------------------------------------
TOTAL              112      0     14      0   100%
