...............
----------------------------------------------------------------------
Ran 15 tests in 0.775s

OK
Name             Stmts   Miss Branch BrPart  Cover   Missing
------------------------------------------------------------
Collatz.py          72      3     36      1    94%   104->106, 106-109
TestCollatz.py      70      0      0      0   100%
------------------------------------------------------------
TOTAL              142      3     36      1    97%
