1 10 20
100 200 125
201 210 89
900 1000 174
10 1 20
293 293 118
8392 638 262
920 29 179
999999 999999 259
72 482 144
2 3 8
82947 94856 333
1 1 1
8472 5829 262
39284 49248 314
6 45 112
99 46 119
9238 2842 262
7395 6923 257
9248 10283 260
424 624 142
98 99 26
924 1001 174
57283 59284 273
673 731 171
9002 8999 185
999999 999998 259
2747 2872 173
48295 47295 314
219 400 144
204 199 120
87489 86999 333
2945 3081 155
68294 67929 312
840 854 60
74294 75024 325
9986 10048 211
100000 99999 227
7284 8326 252
23 31 112
45 34 110
7265 7628 239
80254 79902 320
5482 5309 192
7294 6728 257
30284 29948 272
88888 88888 59
38921 39847 275
99924 99988 204
1938 1784 175
62947 61937 317
892 900 117
478 329 134
10829 11238 268
99482 99372 191
482 562 142
99 99 26
5727 5827 205
210 267 128
7492 7934 221
1425 1487 172
12094 12172 250
58294 57260 273
9019 10003 260
7462 75082 340
67284 66899 268
78725 77284 307
231 224 128
8827 8782 172
332104 332089 291
3145 2999 186
224829 223789 324
4582 4424 184
90988 91072 209
789 765 153
999999 999978 259
14485 14468 209
82790 82682 183
54635 55616 260
7584 7483 208
28425 27997 259
1904 1887 175
1654 1645 136
174842 174901 272
6472 6398 169
1387 1256 177
8948 8870 185
4320 4389 215
7582 7829 221
4928 2098 238
75801 76018 294
18489 19031 261
42948 41998 288
7856 7799 177
1298 1333 177
4275 4111 202
8287 8198 190
2847 2799 173
58957 58634 273
47295 47386 314
62845 61999 317
72758 71902 263
1286 1178 177
3437 3378 181
4720 4804 197
9892 9912 242
64928 65187 224
1676 1724 180
1000 1174 182
2000 2020 144
