...............
----------------------------------------------------------------------
Ran 15 tests in 8.199s

OK
Name             Stmts   Miss Branch BrPart  Cover   Missing
------------------------------------------------------------
Collatz.py          37      0     14      0   100%
TestCollatz.py      66      0      0      0   100%
------------------------------------------------------------
TOTAL              103      0     14      0   100%
