.................................
----------------------------------------------------------------------
Ran 33 tests in 41.025s

OK
Name             Stmts   Miss Branch BrPart  Cover   Missing
------------------------------------------------------------
Collatz.py          30      0     12      0   100%
TestCollatz.py     126      0      0      0   100%
------------------------------------------------------------
TOTAL              156      0     12      0   100%
