...................
----------------------------------------------------------------------
Ran 19 tests in 0.022s

OK
Name             Stmts   Miss Branch BrPart  Cover   Missing
------------------------------------------------------------
Collatz.py          48      1     18      1    97%   107, 106->107
TestCollatz.py      83      0      0      0   100%
------------------------------------------------------------
TOTAL              131      1     18      1    99%
